11REPORT ID:  KRCBCJ01          CIRCUIT COURT OF COOK COUNTY                 PAGE:                 1
  RUN DATE :  2018-06-18      DISTRICT 1 CBC COUNTS FELONY
                                FROM 05/01/2018 TO 05/31/2018
  ---------------------------------------------------------------------------------------------------------------------
  DISP DT    103     606     604     605     277     601     153     TOTALS    894     278     279    RLS ON C RLS ON D
  -------- ------- ------- ------- ------- ------- ------- ------- --------  ------- ------- -------  -------- --------
  05/01/18       0       0       0       0       0       0       0        0        0       0       0         0        0
  05/02/18       0       0       0       0       0       0       0        0        0       0       0         0        0
  05/03/18       0       0       0       0       0       0       0        0        0       0       0         0        0
  05/04/18       0       0       0       0       0       0       0        0        0       0       0         0        0
  05/05/18       0       1       0       0       0       0       0        1        0       0       0         0        9
  05/06/18       0       0       0       0       0       0       0        0        0       0       0         0        0
  05/07/18       0       0       0       0       0       0       0        0        0       0       0         0        0
  05/08/18       0       1       0       0       0       0       0        1        0       0       0         0        5
  05/09/18       0       0       0       0       0       0       0        0        0       0       0         0        0
  05/10/18       0       0       0       0       0       0       0        0        0       0       0         0        0
  05/11/18       0       0       0       0       0       0       0        0        0       0       0         0        0
  05/12/18       0       0       0       0       0       0       0        0        0       0       0         0        0
  05/13/18       0       1       0       0       0       0       0        1        0       0       0         0        3
  05/14/18       0       1       0       0       0       0       0        1        0       0       0         0       12
  05/15/18       0       0       0       0       0       0       0        0        0       0       0         0        0
  05/16/18       0       0       0       0       0       0       0        0        0       0       0         0        0
  05/17/18       0       0       0       0       0       0       0        0        0       0       0         0        0
  05/18/18       0       0       0       0       0       0       0        0        0       0       0         0        0
  05/19/18       0       1       0       0       0       0       0        1        0       0       0         0        0
  05/20/18       0       1       0       0       0       0       0        1        0       0       0         0        9
  05/21/18       0       0       0       0       0       0       0        0        0       0       0         0        0
  05/22/18       0       0       0       0       0       0       0        0        0       0       0         0        0
  05/23/18       0       0       0       0       0       0       0        0        0       0       0         0        0
  05/24/18       0       1       0       0       0       0       0        1        0       0       0         0        7
  05/25/18       0       0       0       0       0       0       0        0        0       0       0         0        0
  05/26/18       0       0       0       0       0       0       0        0        0       0       0         0        0
  05/27/18       0       3       0       0       0       1       0        4        0       0       0         0       16
  05/28/18       0       0       0       0       0       0       0        0        0       0       0         0        0
  05/29/18       0       1       0       0       0       0       0        1        0       0       0         0       14
  05/30/18       0       2       0       0       0       0       0        2        0       0       0         0       23
  05/31/18       0       0       0       0       0       0       0        0        0       0       0         0        0
  ---------------------------------------------------------------------------------------------------------------------
  DIST TOT       0      13       0       0       0       1       0       14        0       0       0         0       98

  103 = NOLLE PROS
  606 = NO BAIL
  604 = BOND TO STAND
  605 = I BONDS
  277 = EMI ORDERED
  601 = D-BONDS
  153 = C-BONDS
  894 = ELECTRONIC MONITOR
  278 = EMI ADMITTED
  279 = EMI NOT ADMITTED
11REPORT ID:  KRCBCJ01          CIRCUIT COURT OF COOK COUNTY                 PAGE:                 2
  RUN DATE :  2018-06-18      DISTRICT 2 CBC COUNTS FELONY
                                FROM 05/01/2018 TO 05/31/2018
  ---------------------------------------------------------------------------------------------------------------------
  DISP DT    103     606     604     605     277     601     153     TOTALS    894     278     279    RLS ON C RLS ON D
  -------- ------- ------- ------- ------- ------- ------- ------- --------  ------- ------- -------  -------- --------
  05/01/18       0       0       0       0       0       0       0        0        0       0       0         0        0
  05/02/18       0       0       0       0       0       0       0        0        0       0       0         0        0
  05/03/18       0       0       0       0       0       0       0        0        0       0       0         0        0
  05/04/18       0       0       0       0       0       0       0        0        0       0       0         0        0
  05/05/18       0       0       0       0       0       0       0        0        0       0       0         0        0
  05/06/18       0       0       0       0       0       0       0        0        0       0       0         0        0
  05/07/18       0       0       0       0       0       0       0        0        0       0       0         0        0
  05/08/18       0       0       0       0       0       0       0        0        0       0       0         0        0
  05/09/18       0       0       0       0       0       0       0        0        0       0       0         0        0
  05/10/18       0       0       0       0       0       0       0        0        0       0       0         0        0
  05/11/18       0       0       0       0       0       0       0        0        0       0       0         0        0
  05/12/18       0       0       0       0       0       0       0        0        0       0       0         0        0
  05/13/18       0       0       0       0       0       0       0        0        0       0       0         0        0
  05/14/18       0       0       0       0       0       0       0        0        0       0       0         0        0
  05/15/18       0       0       0       0       0       0       0        0        0       0       0         0        0
  05/16/18       0       0       0       0       0       0       0        0        0       0       0         0        0
  05/17/18       0       0       0       0       0       0       0        0        0       0       0         0        0
  05/18/18       0       0       0       0       0       0       0        0        0       0       0         0        0
  05/19/18       0       0       0       0       0       0       0        0        0       0       0         0        0
  05/20/18       0       0       0       0       0       0       0        0        0       0       0         0        0
  05/21/18       0       0       0       0       0       0       0        0        0       0       0         0        0
  05/22/18       0       0       0       0       0       0       0        0        0       0       0         0        0
  05/23/18       0       0       0       0       0       0       0        0        0       0       0         0        0
  05/24/18       0       0       0       0       0       0       0        0        0       0       0         0        0
  05/25/18       0       0       0       0       0       0       0        0        0       0       0         0        0
  05/26/18       0       0       0       0       0       0       0        0        0       0       0         0        0
  05/27/18       0       0       0       0       0       0       0        0        0       0       0         0        0
  05/28/18       0       0       0       0       0       0       0        0        0       0       0         0        0
  05/29/18       0       0       0       0       0       0       0        0        0       0       0         0        0
  05/30/18       0       0       0       0       0       0       0        0        0       0       0         0        0
  05/31/18       0       0       1       0       0       0       0        1        0       0       0         1       14
  ---------------------------------------------------------------------------------------------------------------------
  DIST TOT       0       0       1       0       0       0       0        1        0       0       0         1       14

  103 = NOLLE PROS
  606 = NO BAIL
  604 = BOND TO STAND
  605 = I BONDS
  277 = EMI ORDERED
  601 = D-BONDS
  153 = C-BONDS
  894 = ELECTRONIC MONITOR
  278 = EMI ADMITTED
  279 = EMI NOT ADMITTED
11REPORT ID:  KRCBCJ01          CIRCUIT COURT OF COOK COUNTY                 PAGE:                 3
  RUN DATE :  2018-06-18      DISTRICT 3 CBC COUNTS FELONY
                                FROM 05/01/2018 TO 05/31/2018
  ---------------------------------------------------------------------------------------------------------------------
  DISP DT    103     606     604     605     277     601     153     TOTALS    894     278     279    RLS ON C RLS ON D
  -------- ------- ------- ------- ------- ------- ------- ------- --------  ------- ------- -------  -------- --------
  05/01/18       0       0       0       0       0       0       0        0        0       0       0         0        0
  05/02/18       0       0       0       0       0       0       0        0        0       0       0         0        0
  05/03/18       0       0       0       0       0       0       0        0        0       0       0         0        0
  05/04/18       0       0       0       0       0       0       0        0        0       0       0         0        0
  05/05/18       0       0       0       0       0       0       0        0        0       0       0         0        0
  05/06/18       0       0       0       0       0       0       0        0        0       0       0         0        0
  05/07/18       0       0       0       0       0       0       0        0        0       0       0         0        0
  05/08/18       0       0       0       0       0       0       0        0        0       0       0         0        0
  05/09/18       0       0       0       0       0       0       0        0        0       0       0         0        0
  05/10/18       0       0       0       0       0       0       0        0        0       0       0         0        0
  05/11/18       0       0       0       0       0       0       0        0        0       0       0         0        0
  05/12/18       0       0       0       0       0       0       0        0        0       0       0         0        0
  05/13/18       0       0       0       0       0       0       0        0        0       0       0         0        0
  05/14/18       0       0       0       0       0       0       0        0        0       0       0         0        0
  05/15/18       0       0       0       0       0       0       0        0        0       0       0         0        0
  05/16/18       0       0       0       0       0       0       0        0        0       0       0         0        0
  05/17/18       0       0       0       0       0       0       0        0        0       0       0         0        0
  05/18/18       0       0       0       0       0       0       0        0        0       0       0         0        0
  05/19/18       0       0       0       0       0       0       0        0        0       0       0         0        0
  05/20/18       0       0       0       0       0       0       0        0        0       0       0         0        0
  05/21/18       0       1       0       0       0       0       0        1        0       0       0         0       31
  05/22/18       0       0       0       0       0       0       0        0        0       0       0         0        0
  05/23/18       0       0       0       0       0       0       0        0        0       0       0         0        0
  05/24/18       0       0       0       0       0       0       0        0        0       0       0         0        0
  05/25/18       0       0       0       1       0       0       0        1        0       0       0         0        7
  05/26/18       0       0       0       0       0       0       0        0        0       0       0         0        0
  05/27/18       0       0       0       0       0       0       0        0        0       0       0         0        0
  05/28/18       0       0       0       0       0       0       0        0        0       0       0         0        0
  05/29/18       0       0       0       0       0       0       0        0        0       0       0         0        0
  05/30/18       0       0       0       0       0       0       0        0        0       0       0         0        0
  05/31/18       0       0       0       0       0       0       0        0        0       0       0         0        0
  ---------------------------------------------------------------------------------------------------------------------
  DIST TOT       0       1       0       1       0       0       0        2        0       0       0         0       38

  103 = NOLLE PROS
  606 = NO BAIL
  604 = BOND TO STAND
  605 = I BONDS
  277 = EMI ORDERED
  601 = D-BONDS
  153 = C-BONDS
  894 = ELECTRONIC MONITOR
  278 = EMI ADMITTED
  279 = EMI NOT ADMITTED
11REPORT ID:  KRCBCJ01          CIRCUIT COURT OF COOK COUNTY                 PAGE:                 4
  RUN DATE :  2018-06-18      DISTRICT 4 CBC COUNTS FELONY
                                FROM 05/01/2018 TO 05/31/2018
  ---------------------------------------------------------------------------------------------------------------------
  DISP DT    103     606     604     605     277     601     153     TOTALS    894     278     279    RLS ON C RLS ON D
  -------- ------- ------- ------- ------- ------- ------- ------- --------  ------- ------- -------  -------- --------
  05/01/18       0       0       0       0       0       0       0        0        0       0       0         0        0
  05/02/18       0       0       0       0       0       0       0        0        0       0       0         0        0
  05/03/18       0       0       0       0       0       0       0        0        0       0       0         0        0
  05/04/18       0       0       0       0       0       0       0        0        0       0       0         0        0
  05/05/18       0       0       0       0       0       0       0        0        0       0       0         0        0
  05/06/18       0       0       0       0       0       0       0        0        0       0       0         0        0
  05/07/18       0       0       0       0       0       0       0        0        0       0       0         0        0
  05/08/18       0       0       0       0       0       0       0        0        0       0       0         0        0
  05/09/18       0       0       0       0       0       0       0        0        0       0       0         0        0
  05/10/18       0       0       0       0       0       0       0        0        0       0       0         0        0
  05/11/18       0       0       0       0       0       0       0        0        0       0       0         0        0
  05/12/18       0       0       0       0       0       0       0        0        0       0       0         0        0
  05/13/18       0       0       0       0       0       0       0        0        0       0       0         0        0
  05/14/18       0       0       0       0       0       0       0        0        0       0       0         0        0
  05/15/18       0       0       0       0       0       0       0        0        0       0       0         0        0
  05/16/18       0       0       0       0       0       0       0        0        0       0       0         0        0
  05/17/18       0       0       0       0       0       0       0        0        0       0       0         0        0
  05/18/18       0       0       0       0       0       0       0        0        0       0       0         0        0
  05/19/18       0       0       0       0       0       0       0        0        0       0       0         0        0
  05/20/18       0       0       0       0       0       0       0        0        0       0       0         0        0
  05/21/18       0       0       0       0       0       0       0        0        0       0       0         0        0
  05/22/18       0       0       0       0       0       0       0        0        0       0       0         0        0
  05/23/18       0       0       0       0       0       0       0        0        0       0       0         0        0
  05/24/18       0       0       0       0       0       0       0        0        0       0       0         0        0
  05/25/18       0       0       0       0       0       0       0        0        0       0       0         0        0
  05/26/18       0       0       0       0       0       0       0        0        0       0       0         0        0
  05/27/18       0       0       0       0       0       0       0        0        0       0       0         0        0
  05/28/18       0       0       0       0       0       0       0        0        0       0       0         0        0
  05/29/18       0       0       0       0       0       0       0        0        0       0       0         0        0
  05/30/18       0       0       0       0       0       0       1        1        0       0       0         0        5
  05/31/18       0       0       0       0       0       0       0        0        0       0       0         0        0
  ---------------------------------------------------------------------------------------------------------------------
  DIST TOT       0       0       0       0       0       0       1        1        0       0       0         0        5

  103 = NOLLE PROS
  606 = NO BAIL
  604 = BOND TO STAND
  605 = I BONDS
  277 = EMI ORDERED
  601 = D-BONDS
  153 = C-BONDS
  894 = ELECTRONIC MONITOR
  278 = EMI ADMITTED
  279 = EMI NOT ADMITTED
11REPORT ID:  KRCBCJ01          CIRCUIT COURT OF COOK COUNTY                 PAGE:                 5
  RUN DATE :  2018-06-18      DISTRICT 5 CBC COUNTS FELONY
                                FROM 05/01/2018 TO 05/31/2018
  ---------------------------------------------------------------------------------------------------------------------
  DISP DT    103     606     604     605     277     601     153     TOTALS    894     278     279    RLS ON C RLS ON D
  -------- ------- ------- ------- ------- ------- ------- ------- --------  ------- ------- -------  -------- --------
  05/01/18       0       0       0       0       0       0       0        0        0       0       0         0        0
  05/02/18       0       0       0       0       0       0       0        0        0       0       0         0        0
  05/03/18       0       0       0       0       0       0       0        0        0       0       0         0        0
  05/04/18       0       0       0       0       0       0       0        0        0       0       0         0        0
  05/05/18       0       0       0       0       0       0       0        0        0       0       0         0        0
  05/06/18       0       0       0       0       0       0       0        0        0       0       0         0        0
  05/07/18       0       0       0       0       0       0       0        0        0       0       0         0        0
  05/08/18       0       0       0       0       0       0       0        0        0       0       0         0        0
  05/09/18       0       0       0       0       0       0       0        0        0       0       0         0        0
  05/10/18       0       0       0       0       0       0       0        0        0       0       0         0        0
  05/11/18       0       0       0       0       0       0       0        0        0       0       0         0        0
  05/12/18       0       0       0       0       0       0       0        0        0       0       0         0        0
  05/13/18       0       0       0       0       0       0       0        0        0       0       0         0        0
  05/14/18       0       0       0       0       0       0       0        0        0       0       0         0        0
  05/15/18       0       0       0       0       0       0       0        0        0       0       0         0        0
  05/16/18       0       0       0       0       0       0       0        0        0       0       0         0        0
  05/17/18       0       0       0       0       0       0       0        0        0       0       0         0        0
  05/18/18       0       0       0       0       0       0       0        0        0       0       0         0        0
  05/19/18       0       0       0       0       0       0       0        0        0       0       0         0        0
  05/20/18       0       0       0       0       0       0       0        0        0       0       0         0        0
  05/21/18       0       0       0       0       0       0       0        0        0       0       0         0        0
  05/22/18       0       0       0       0       0       0       0        0        0       0       0         0        0
  05/23/18       0       0       0       0       0       0       0        0        0       0       0         0        0
  05/24/18       0       0       0       0       0       0       0        0        0       0       0         0        0
  05/25/18       0       0       0       0       0       0       0        0        0       0       0         0        0
  05/26/18       0       0       0       0       0       0       0        0        0       0       0         0        0
  05/27/18       0       0       0       0       0       0       0        0        0       0       0         0        0
  05/28/18       0       0       0       0       0       0       0        0        0       0       0         0        0
  05/29/18       0       0       0       0       0       0       0        0        0       0       0         0        0
  05/30/18       1       0       0       0       0       0       0        1        0       0       0         0       39
  05/31/18       1       0       0       0       0       0       0        1        0       0       0         0       33
  ---------------------------------------------------------------------------------------------------------------------
  DIST TOT       2       0       0       0       0       0       0        2        0       0       0         0       72

  103 = NOLLE PROS
  606 = NO BAIL
  604 = BOND TO STAND
  605 = I BONDS
  277 = EMI ORDERED
  601 = D-BONDS
  153 = C-BONDS
  894 = ELECTRONIC MONITOR
  278 = EMI ADMITTED
  279 = EMI NOT ADMITTED
11REPORT ID:  KRCBCJ01          CIRCUIT COURT OF COOK COUNTY                 PAGE:                 6
  RUN DATE :  2018-06-18      DISTRICT 6 CBC COUNTS FELONY
                                FROM 05/01/2018 TO 05/31/2018
  ---------------------------------------------------------------------------------------------------------------------
  DISP DT    103     606     604     605     277     601     153     TOTALS    894     278     279    RLS ON C RLS ON D
  -------- ------- ------- ------- ------- ------- ------- ------- --------  ------- ------- -------  -------- --------
  05/01/18       0       0       0       0       0       0       0        0        0       0       0         0        0
  05/02/18       0       0       0       0       0       0       0        0        0       0       0         0        0
  05/03/18       0       0       0       0       0       0       0        0        0       0       0         0        0
  05/04/18       0       0       0       0       0       0       0        0        0       0       0         0        0
  05/05/18       0       0       0       0       0       0       0        0        0       0       0         0        0
  05/06/18       0       0       0       0       0       0       0        0        0       0       0         0        0
  05/07/18       0       0       0       0       0       0       0        0        0       0       0         0        0
  05/08/18       0       0       0       0       0       0       0        0        0       0       0         0        0
  05/09/18       0       0       0       0       0       0       0        0        0       0       0         0        0
  05/10/18       0       0       0       0       0       0       0        0        0       0       0         0        0
  05/11/18       0       0       0       0       0       0       0        0        0       0       0         0        0
  05/12/18       0       0       0       0       0       0       0        0        0       0       0         0        0
  05/13/18       0       0       0       0       0       0       0        0        0       0       0         0        0
  05/14/18       0       0       0       0       0       0       0        0        0       0       0         0        0
  05/15/18       0       4       0       0       0       0       0        4        0       0       0         0        0
  05/16/18       0       0       0       0       0       0       0        0        0       0       0         0        0
  05/17/18       0       0       0       0       0       0       0        0        0       0       0         0        0
  05/18/18       0       0       0       0       0       0       0        0        0       0       0         0        0
  05/19/18       0       0       0       0       0       0       0        0        0       0       0         0        0
  05/20/18       0       0       0       0       0       0       0        0        0       0       0         0        0
  05/21/18       0       0       0       0       0       0       0        0        0       0       0         0        0
  05/22/18       0       0       0       0       0       0       0        0        0       0       0         0        0
  05/23/18       0       0       0       0       0       0       0        0        0       0       0         0        0
  05/24/18       0       0       0       0       0       0       0        0        0       0       0         0        0
  05/25/18       0       0       0       0       0       0       0        0        0       0       0         0        0
  05/26/18       0       0       0       0       0       0       0        0        0       0       0         0        0
  05/27/18       0       0       0       0       0       0       0        0        0       0       0         0        0
  05/28/18       0       0       0       0       0       0       0        0        0       0       0         0        0
  05/29/18       0       0       0       0       0       4       0        4        0       0       0         0        5
  05/30/18       0       0       0       0       0       0       0        0        0       0       0         0        0
  05/31/18       0       1       0       0       0       0       0        1        0       0       0         0        1
  ---------------------------------------------------------------------------------------------------------------------
  DIST TOT       0       5       0       0       0       4       0        9        0       0       0         0        6

  103 = NOLLE PROS
  606 = NO BAIL
  604 = BOND TO STAND
  605 = I BONDS
  277 = EMI ORDERED
  601 = D-BONDS
  153 = C-BONDS
  894 = ELECTRONIC MONITOR
  278 = EMI ADMITTED
  279 = EMI NOT ADMITTED
11REPORT ID:  KRCBCJ01          CIRCUIT COURT OF COOK COUNTY                 PAGE:                 7
  RUN DATE :  2018-06-18      DISTRICT 7 CBC COUNTS FELONY
                                FROM 05/01/2018 TO 05/31/2018
  ---------------------------------------------------------------------------------------------------------------------
  DISP DT    103     606     604     605     277     601     153     TOTALS    894     278     279    RLS ON C RLS ON D
  -------- ------- ------- ------- ------- ------- ------- ------- --------  ------- ------- -------  -------- --------
  05/01/18       0       0       0       0       0       0       0        0        0       0       0         0        0
  05/02/18       0       0       0       0       0       0       0        0        0       0       0         0        0
  05/03/18       0       0       0       0       0       0       0        0        0       0       0         0        0
  05/04/18       0       0       0       0       0       0       0        0        0       0       0         0        0
  05/05/18       0       0       0       0       0       0       0        0        0       0       0         0        0
  05/06/18       0       0       0       0       0       0       0        0        0       0       0         0        0
  05/07/18       0       0       0       0       0       0       0        0        0       0       0         0        0
  05/08/18       0       0       0       0       0       0       0        0        0       0       0         0        0
  05/09/18       0       0       0       0       0       0       0        0        0       0       0         0        0
  05/10/18       0       0       0       0       0       0       0        0        0       0       0         0        0
  05/11/18       0       0       0       0       0       0       0        0        0       0       0         0        0
  05/12/18       0       0       0       0       0       0       0        0        0       0       0         0        0
  05/13/18       0       0       0       0       0       0       0        0        0       0       0         0        0
  05/14/18       0       0       0       0       0       0       0        0        0       0       0         0        0
  05/15/18       0       0       0       0       0       0       0        0        0       0       0         0        0
  05/16/18       0       0       0       0       0       0       0        0        0       0       0         0        0
  05/17/18       0       0       0       0       0       0       0        0        0       0       0         0        0
  05/18/18       0       0       0       0       0       0       0        0        0       0       0         0        0
  05/19/18       0       0       0       0       0       0       0        0        0       0       0         0        0
  05/20/18       0       0       0       0       0       0       0        0        0       0       0         0        0
  05/21/18       0       0       0       0       0       0       0        0        0       0       0         0        0
  05/22/18       0       0       0       0       0       0       0        0        0       0       0         0        0
  05/23/18       0       0       0       0       0       0       0        0        0       0       0         0        0
  05/24/18       0       0       0       0       0       0       0        0        0       0       0         0        0
  05/25/18       0       0       0       0       0       0       0        0        0       0       0         0        0
  05/26/18       0       0       0       0       0       0       0        0        0       0       0         0        0
  05/27/18       0       0       0       0       0       0       0        0        0       0       0         0        0
  05/28/18       0       0       0       0       0       0       0        0        0       0       0         0        0
  05/29/18       0       0       0       0       0       0       0        0        0       0       0         0        0
  05/30/18       0       0       0       0       0       0       0        0        0       0       0         0        0
  05/31/18       0       0       0       0       0       0       0        0        0       0       0         0        0
  ---------------------------------------------------------------------------------------------------------------------
  DIST TOT       0       0       0       0       0       0       0        0        0       0       0         0        0

  103 = NOLLE PROS
  606 = NO BAIL
  604 = BOND TO STAND
  605 = I BONDS
  277 = EMI ORDERED
  601 = D-BONDS
  153 = C-BONDS
  894 = ELECTRONIC MONITOR
  278 = EMI ADMITTED
  279 = EMI NOT ADMITTED
11REPORT ID:  KRCBCJ01          CIRCUIT COURT OF COOK COUNTY                 PAGE:                 8
  RUN DATE :  2018-06-18      DISTRICT   CBC COUNTS FELONY
                                FROM 05/01/2018 TO 05/31/2018
  ---------------------------------------------------------------------------------------------------------------------
             103     606     604     605     277     601     153     TOTALS    894     278     279    RLS ON C RLS ON D
  -------- ------- ------- ------- ------- ------- ------- ------- --------  ------- ------- -------  -------- --------
  GRND TOT       2      19       1       1       0       5       1       29        0       0       0         1      233
