11REPORT ID:  KRCBCJ01          CIRCUIT COURT OF COOK COUNTY                 PAGE:                 1
  RUN DATE :  2018-07-15      DISTRICT 1 CBC COUNTS FELONY
                                FROM 06/01/2018 TO 06/30/2018
  ------------------------------------------------------------------------------------------------------------------------------------
  DISP DT    103     606     604     605     277     601     153     TOTALS    894     278     279    RLS ON C RLS ON D
  -------- ------- ------- ------- ------- ------- ------- ------- --------  ------- ------- -------  -------- --------
  06/01/18       0       0       0       0       0       0       0        0        0       0       0         0        0
  06/02/18       0       0       0       0       0       0       0        0        0       0       0         0        0
  06/03/18       0       0       0       0       0       0       0        0        0       0       0         0        0
  06/04/18       0       0       0       0       0       0       0        0        0       0       0         0        0
  06/05/18       0       0       0       0       0       0       0        0        0       0       0         0        0
  06/06/18       0       0       0       0       0       0       0        0        0       0       0         0        0
  06/07/18       0       0       0       0       0       0       0        0        0       0       0         0        0
  06/08/18       0       0       0       0       0       0       0        0        0       0       0         0        0
  06/09/18       0       0       0       0       0       0       0        0        0       0       0         0        0
  06/10/18       0       0       0       0       0       0       0        0        0       0       0         0        0
  06/11/18       0       0       0       0       0       0       0        0        0       0       0         0        0
  06/12/18       0       1       0       0       0       0       0        1        0       0       0         0       10
  06/13/18       0       0       0       0       0       0       0        0        0       0       0         0        0
  06/14/18       0       0       0       0       0       0       0        0        0       0       0         0        0
  06/15/18       0       1       0       0       0       0       0        1        0       0       0         0        3
  06/16/18       0       0       0       0       0       0       0        0        0       0       0         0        0
  06/17/18       0       0       0       0       0       0       0        0        0       0       0         0        0
  06/18/18       0       1       0       0       0       0       0        1        0       0       0         0        3
  06/19/18       0       0       0       0       0       0       0        0        0       0       0         0        0
  06/20/18       0       0       0       0       0       0       0        0        0       0       0         0        0
  06/21/18       0       1       0       0       0       0       0        1        0       0       0         0        9
  06/22/18       0       0       0       0       0       0       0        0        0       0       0         0        0
  06/23/18       0       1       0       0       0       0       0        1        0       0       0         0        6
  06/24/18       0       1       0       0       0       0       0        1        0       0       0         0       10
  06/25/18       0       0       0       0       0       0       0        0        0       0       0         0        0
  06/26/18       0       1       0       0       0       0       0        1        0       0       0         0       37
  06/27/18       0       3       0       0       0       0       0        3        0       0       0         0       16
  06/28/18       0       0       0       0       0       0       0        0        0       0       0         0        0
  06/29/18       0       2       0       0       0       0       0        2        0       0       0         0       41
  06/30/18       0       3       0       0       0       0       0        3        0       0       0         1       49
  ------------------------------------------------------------------------------------------------------------------------------------
  DIST TOT       0      15       0       0       0       0       0       15        0       0       0         1      184

  103 = NOLLE PROS
  606 = NO BAIL
  604 = BOND TO STAND
  605 = I BONDS
  277 = EMI ORDERED
  601 = D-BONDS
  153 = C-BONDS
  894 = ELECTRONIC MONITOR
  278 = EMI ADMITTED
  279 = EMI NOT ADMITTED
11REPORT ID:  KRCBCJ01          CIRCUIT COURT OF COOK COUNTY                 PAGE:                 2
  RUN DATE :  2018-07-15      DISTRICT 2 CBC COUNTS FELONY
                                FROM 06/01/2018 TO 06/30/2018
  ------------------------------------------------------------------------------------------------------------------------------------
  DISP DT    103     606     604     605     277     601     153     TOTALS    894     278     279    RLS ON C RLS ON D
  -------- ------- ------- ------- ------- ------- ------- ------- --------  ------- ------- -------  -------- --------
  06/01/18       0       0       0       0       0       0       0        0        0       0       0         0        0
  06/02/18       0       0       0       0       0       0       0        0        0       0       0         0        0
  06/03/18       0       0       0       0       0       0       0        0        0       0       0         0        0
  06/04/18       0       0       0       0       0       0       0        0        0       0       0         0        0
  06/05/18       0       0       0       0       0       0       0        0        0       0       0         0        0
  06/06/18       0       0       0       0       0       0       0        0        0       0       0         0        0
  06/07/18       0       0       0       0       0       0       0        0        0       0       0         0        0
  06/08/18       0       0       0       0       0       0       0        0        0       0       0         0        0
  06/09/18       0       0       0       0       0       0       0        0        0       0       0         0        0
  06/10/18       0       0       0       0       0       0       0        0        0       0       0         0        0
  06/11/18       0       0       0       0       0       0       0        0        0       0       0         0        0
  06/12/18       0       0       0       0       0       0       0        0        0       0       0         0        0
  06/13/18       0       0       0       0       0       0       0        0        0       0       0         0        0
  06/14/18       0       0       0       0       0       0       0        0        0       0       0         0        0
  06/15/18       0       0       0       0       0       0       0        0        0       0       0         0        0
  06/16/18       0       0       0       0       0       0       0        0        0       0       0         0        0
  06/17/18       0       0       0       0       0       0       0        0        0       0       0         0        0
  06/18/18       0       0       0       0       0       0       0        0        0       0       0         0        0
  06/19/18       0       0       0       0       0       0       0        0        0       0       0         0        0
  06/20/18       0       0       0       0       0       0       0        0        0       0       0         0        0
  06/21/18       0       0       0       0       0       0       0        0        0       0       0         0        0
  06/22/18       0       0       0       0       0       0       0        0        0       0       0         0        0
  06/23/18       0       0       0       0       0       0       0        0        0       0       0         0        0
  06/24/18       0       0       0       0       0       0       0        0        0       0       0         0        0
  06/25/18       0       0       0       0       0       0       0        0        0       0       0         0        0
  06/26/18       0       0       0       0       0       0       0        0        0       0       0         0        0
  06/27/18       0       0       0       0       0       0       0        0        0       0       0         0        0
  06/28/18       0       0       0       0       0       0       0        0        0       0       0         0        0
  06/29/18       0       0       0       0       0       0       0        0        0       0       0         0        0
  06/30/18       0       0       0       0       0       0       0        0        0       0       0         0        0
  ------------------------------------------------------------------------------------------------------------------------------------
  DIST TOT       0       0       0       0       0       0       0        0        0       0       0         0        0

  103 = NOLLE PROS
  606 = NO BAIL
  604 = BOND TO STAND
  605 = I BONDS
  277 = EMI ORDERED
  601 = D-BONDS
  153 = C-BONDS
  894 = ELECTRONIC MONITOR
  278 = EMI ADMITTED
  279 = EMI NOT ADMITTED
11REPORT ID:  KRCBCJ01          CIRCUIT COURT OF COOK COUNTY                 PAGE:                 3
  RUN DATE :  2018-07-15      DISTRICT 3 CBC COUNTS FELONY
                                FROM 06/01/2018 TO 06/30/2018
  ------------------------------------------------------------------------------------------------------------------------------------
  DISP DT    103     606     604     605     277     601     153     TOTALS    894     278     279    RLS ON C RLS ON D
  -------- ------- ------- ------- ------- ------- ------- ------- --------  ------- ------- -------  -------- --------
  06/01/18       0       0       0       0       0       0       0        0        0       0       0         0        0
  06/02/18       0       0       0       0       0       0       0        0        0       0       0         0        0
  06/03/18       0       0       0       0       0       0       0        0        0       0       0         0        0
  06/04/18       0       0       0       0       0       0       0        0        0       0       0         0        0
  06/05/18       0       0       0       0       0       0       0        0        0       0       0         0        0
  06/06/18       0       0       0       0       0       0       0        0        0       0       0         0        0
  06/07/18       0       0       0       0       0       0       0        0        0       0       0         0        0
  06/08/18       0       0       0       0       0       0       0        0        0       0       0         0        0
  06/09/18       0       0       0       0       0       0       0        0        0       0       0         0        0
  06/10/18       0       0       0       0       0       0       0        0        0       0       0         0        0
  06/11/18       0       0       0       0       0       0       0        0        0       0       0         0        0
  06/12/18       0       0       0       0       0       0       0        0        0       0       0         0        0
  06/13/18       0       0       0       0       0       0       0        0        0       0       0         0        0
  06/14/18       0       0       0       0       0       0       0        0        0       0       0         0        0
  06/15/18       0       0       0       0       0       0       0        0        0       0       0         0        0
  06/16/18       0       0       0       0       0       0       0        0        0       0       0         0        0
  06/17/18       0       0       0       0       0       0       0        0        0       0       0         0        0
  06/18/18       0       0       0       0       0       0       0        0        0       0       0         0        0
  06/19/18       0       0       0       0       0       0       0        0        0       0       0         0        0
  06/20/18       0       0       0       0       0       0       0        0        0       0       0         0        0
  06/21/18       0       0       0       0       0       0       0        0        0       0       0         0        0
  06/22/18       0       0       0       0       0       0       0        0        0       0       0         0        0
  06/23/18       0       0       0       0       0       0       0        0        0       0       0         0        0
  06/24/18       0       0       0       0       0       0       0        0        0       0       0         0        0
  06/25/18       0       0       0       0       0       0       0        0        0       0       0         0        0
  06/26/18       0       0       0       0       0       0       0        0        0       0       0         0        5
  06/27/18       0       0       0       0       0       0       0        0        0       0       0         0        0
  06/28/18       0       0       0       0       0       0       0        0        0       0       0         0        0
  06/29/18       0       0       0       0       0       0       0        0        0       0       0         0        9
  06/30/18       0       0       0       0       0       0       0        0        0       0       0         0        0
  ------------------------------------------------------------------------------------------------------------------------------------
  DIST TOT       0       0       0       0       0       0       0        0        0       0       0         0       14

  103 = NOLLE PROS
  606 = NO BAIL
  604 = BOND TO STAND
  605 = I BONDS
  277 = EMI ORDERED
  601 = D-BONDS
  153 = C-BONDS
  894 = ELECTRONIC MONITOR
  278 = EMI ADMITTED
  279 = EMI NOT ADMITTED
11REPORT ID:  KRCBCJ01          CIRCUIT COURT OF COOK COUNTY                 PAGE:                 4
  RUN DATE :  2018-07-15      DISTRICT 4 CBC COUNTS FELONY
                                FROM 06/01/2018 TO 06/30/2018
  ------------------------------------------------------------------------------------------------------------------------------------
  DISP DT    103     606     604     605     277     601     153     TOTALS    894     278     279    RLS ON C RLS ON D
  -------- ------- ------- ------- ------- ------- ------- ------- --------  ------- ------- -------  -------- --------
  06/01/18       0       0       0       0       0       0       0        0        0       0       0         0        0
  06/02/18       0       0       0       0       0       0       0        0        0       0       0         0        0
  06/03/18       0       0       0       0       0       0       0        0        0       0       0         0        0
  06/04/18       0       0       0       0       0       0       0        0        0       0       0         0        0
  06/05/18       0       0       0       0       0       0       0        0        0       0       0         0        0
  06/06/18       0       0       0       0       0       0       0        0        0       0       0         0        0
  06/07/18       0       0       0       0       0       0       0        0        0       0       0         0        0
  06/08/18       0       0       0       0       0       0       0        0        0       0       0         0        0
  06/09/18       0       0       0       0       0       0       0        0        0       0       0         0        0
  06/10/18       0       0       0       0       0       0       0        0        0       0       0         0        0
  06/11/18       0       0       0       0       0       0       0        0        0       0       0         0        0
  06/12/18       0       0       0       0       0       0       0        0        0       0       0         0        0
  06/13/18       0       0       0       0       0       0       0        0        0       0       0         0        0
  06/14/18       0       0       0       0       0       0       0        0        0       0       0         0        0
  06/15/18       0       0       1       0       0       0       0        1        0       0       0         1       23
  06/16/18       0       0       0       0       0       0       0        0        0       0       0         0        0
  06/17/18       0       0       0       0       0       0       0        0        0       0       0         0        0
  06/18/18       0       0       0       0       0       0       0        0        0       0       0         0        0
  06/19/18       0       0       0       0       0       0       0        0        0       0       0         0        0
  06/20/18       0       0       0       0       0       0       0        0        0       0       0         0        0
  06/21/18       0       0       0       0       0       0       0        0        0       0       0         0        0
  06/22/18       0       0       0       0       0       0       0        0        0       0       0         0        0
  06/23/18       0       0       0       0       0       0       0        0        0       0       0         0        0
  06/24/18       0       0       0       0       0       0       0        0        0       0       0         0        0
  06/25/18       0       0       0       0       0       0       0        0        0       0       0         0        0
  06/26/18       0       0       1       0       0       0       0        1        0       0       0         0        9
  06/27/18       0       0       0       0       0       0       0        0        0       0       0         0        0
  06/28/18       0       0       0       0       0       0       0        0        0       0       0         0        0
  06/29/18       0       0       0       0       0       0       0        0        0       0       0         0        0
  06/30/18       0       0       0       0       0       0       0        0        0       0       0         0        0
  ------------------------------------------------------------------------------------------------------------------------------------
  DIST TOT       0       0       2       0       0       0       0        2        0       0       0         1       32

  103 = NOLLE PROS
  606 = NO BAIL
  604 = BOND TO STAND
  605 = I BONDS
  277 = EMI ORDERED
  601 = D-BONDS
  153 = C-BONDS
  894 = ELECTRONIC MONITOR
  278 = EMI ADMITTED
  279 = EMI NOT ADMITTED
11REPORT ID:  KRCBCJ01          CIRCUIT COURT OF COOK COUNTY                 PAGE:                 5
  RUN DATE :  2018-07-15      DISTRICT 5 CBC COUNTS FELONY
                                FROM 06/01/2018 TO 06/30/2018
  ------------------------------------------------------------------------------------------------------------------------------------
  DISP DT    103     606     604     605     277     601     153     TOTALS    894     278     279    RLS ON C RLS ON D
  -------- ------- ------- ------- ------- ------- ------- ------- --------  ------- ------- -------  -------- --------
  06/01/18       0       0       0       0       0       0       0        0        0       0       0         0        0
  06/02/18       0       0       0       0       0       0       0        0        0       0       0         0        0
  06/03/18       0       0       0       0       0       0       0        0        0       0       0         0        0
  06/04/18       0       0       0       0       0       0       0        0        0       0       0         0        0
  06/05/18       0       0       0       0       0       0       0        0        0       0       0         0        0
  06/06/18       0       0       0       0       0       0       0        0        0       0       0         0        0
  06/07/18       0       0       0       0       0       0       0        0        0       0       0         0        0
  06/08/18       0       0       0       0       0       0       0        0        0       0       0         0        0
  06/09/18       0       0       0       0       0       0       0        0        0       0       0         0        0
  06/10/18       0       0       0       0       0       0       0        0        0       0       0         0        0
  06/11/18       0       0       0       0       0       0       0        0        0       0       0         0        0
  06/12/18       0       0       0       0       0       0       0        0        0       0       0         0        0
  06/13/18       0       0       0       0       0       0       0        0        0       0       0         0        0
  06/14/18       0       0       0       0       0       0       0        0        0       0       0         0        0
  06/15/18       0       0       0       0       0       0       0        0        0       0       0         0        0
  06/16/18       0       0       0       0       0       0       0        0        0       0       0         0        0
  06/17/18       0       0       0       0       0       0       0        0        0       0       0         0        0
  06/18/18       0       0       0       0       0       0       0        0        0       0       0         0        0
  06/19/18       0       0       0       0       0       0       0        0        0       0       0         0        0
  06/20/18       0       0       0       0       0       0       0        0        0       0       0         0        0
  06/21/18       0       0       0       0       0       0       0        0        0       0       0         0        0
  06/22/18       0       0       0       0       0       0       0        0        0       0       0         0        0
  06/23/18       0       0       0       0       0       0       0        0        0       0       0         0        0
  06/24/18       0       0       0       0       0       0       0        0        0       0       0         0        0
  06/25/18       0       0       0       0       0       0       0        0        0       0       0         0        0
  06/26/18       0       0       0       0       0       0       0        0        0       0       0         0        0
  06/27/18       0       0       0       0       0       0       0        0        0       0       0         0        0
  06/28/18       0       0       0       0       0       0       0        0        0       0       0         0        0
  06/29/18       0       0       0       0       0       0       0        0        0       0       0         0        0
  06/30/18       0       0       0       0       0       0       0        0        0       0       0         0        0
  ------------------------------------------------------------------------------------------------------------------------------------
  DIST TOT       0       0       0       0       0       0       0        0        0       0       0         0        0

  103 = NOLLE PROS
  606 = NO BAIL
  604 = BOND TO STAND
  605 = I BONDS
  277 = EMI ORDERED
  601 = D-BONDS
  153 = C-BONDS
  894 = ELECTRONIC MONITOR
  278 = EMI ADMITTED
  279 = EMI NOT ADMITTED
11REPORT ID:  KRCBCJ01          CIRCUIT COURT OF COOK COUNTY                 PAGE:                 6
  RUN DATE :  2018-07-15      DISTRICT 6 CBC COUNTS FELONY
                                FROM 06/01/2018 TO 06/30/2018
  ------------------------------------------------------------------------------------------------------------------------------------
  DISP DT    103     606     604     605     277     601     153     TOTALS    894     278     279    RLS ON C RLS ON D
  -------- ------- ------- ------- ------- ------- ------- ------- --------  ------- ------- -------  -------- --------
  06/01/18       0       0       0       0       0       0       0        0        0       0       0         0        0
  06/02/18       0       0       0       0       0       0       0        0        0       0       0         0        0
  06/03/18       0       0       0       0       0       0       0        0        0       0       0         0        0
  06/04/18       0       0       0       0       0       0       0        0        0       0       0         0        0
  06/05/18       0       0       0       0       0       0       0        0        0       0       0         0        0
  06/06/18       0       0       0       0       0       0       0        0        0       0       0         0        0
  06/07/18       0       0       0       0       0       0       0        0        0       0       0         0        0
  06/08/18       0       0       0       0       0       0       0        0        0       0       0         0        0
  06/09/18       0       0       0       0       0       0       0        0        0       0       0         0        0
  06/10/18       0       0       0       0       0       0       0        0        0       0       0         0        0
  06/11/18       0       0       0       0       0       0       0        0        0       0       0         0        0
  06/12/18       0       0       0       0       0       0       0        0        0       0       0         0        0
  06/13/18       0       0       0       0       0       0       0        0        0       0       0         0        0
  06/14/18       0       0       0       0       0       0       0        0        0       0       0         0        0
  06/15/18       0       0       0       0       0       0       0        0        0       0       0         0        0
  06/16/18       0       0       0       0       0       0       0        0        0       0       0         0        0
  06/17/18       0       0       0       0       0       0       0        0        0       0       0         0        0
  06/18/18       0       0       0       0       0       0       0        0        0       0       0         0        0
  06/19/18       0       0       0       0       0       0       0        0        0       0       0         0        0
  06/20/18       0       0       0       0       0       0       0        0        0       0       0         0        0
  06/21/18       0       0       0       0       0       0       0        0        0       0       0         0        0
  06/22/18       0       0       0       0       0       0       0        0        0       0       0         0        0
  06/23/18       0       0       0       0       0       0       0        0        0       0       0         0        0
  06/24/18       0       0       0       0       0       0       0        0        0       0       0         0        0
  06/25/18       0       0       0       0       0       0       0        0        0       0       0         0        0
  06/26/18       0       0       0       0       0       0       0        0        0       0       0         0        0
  06/27/18       0       0       0       0       0       0       0        0        0       0       0         0        0
  06/28/18       0       0       0       0       0       0       0        0        0       0       0         0        0
  06/29/18       0       0       0       0       0       0       0        0        0       0       0         0        0
  06/30/18       0       0       0       0       0       0       0        0        0       0       0         0        0
  ------------------------------------------------------------------------------------------------------------------------------------
  DIST TOT       0       0       0       0       0       0       0        0        0       0       0         0        0

  103 = NOLLE PROS
  606 = NO BAIL
  604 = BOND TO STAND
  605 = I BONDS
  277 = EMI ORDERED
  601 = D-BONDS
  153 = C-BONDS
  894 = ELECTRONIC MONITOR
  278 = EMI ADMITTED
  279 = EMI NOT ADMITTED
11REPORT ID:  KRCBCJ01          CIRCUIT COURT OF COOK COUNTY                 PAGE:                 7
  RUN DATE :  2018-07-15      DISTRICT 7 CBC COUNTS FELONY
                                FROM 06/01/2018 TO 06/30/2018
  ------------------------------------------------------------------------------------------------------------------------------------
  DISP DT    103     606     604     605     277     601     153     TOTALS    894     278     279    RLS ON C RLS ON D
  -------- ------- ------- ------- ------- ------- ------- ------- --------  ------- ------- -------  -------- --------
  06/01/18       0       0       0       0       0       0       0        0        0       0       0         0        0
  06/02/18       0       0       0       0       0       0       0        0        0       0       0         0        0
  06/03/18       0       0       0       0       0       0       0        0        0       0       0         0        0
  06/04/18       0       0       0       0       0       0       0        0        0       0       0         0        0
  06/05/18       0       0       0       0       0       0       0        0        0       0       0         0        0
  06/06/18       0       0       0       0       0       0       0        0        0       0       0         0        0
  06/07/18       0       0       0       0       0       0       0        0        0       0       0         0        0
  06/08/18       0       0       0       0       0       0       0        0        0       0       0         0        0
  06/09/18       0       0       0       0       0       0       0        0        0       0       0         0        0
  06/10/18       0       0       0       0       0       0       0        0        0       0       0         0        0
  06/11/18       0       0       0       0       0       0       0        0        0       0       0         0        0
  06/12/18       0       0       0       0       0       0       0        0        0       0       0         0        0
  06/13/18       0       0       0       0       0       0       0        0        0       0       0         0        0
  06/14/18       0       0       0       0       0       0       0        0        0       0       0         0        0
  06/15/18       0       0       0       0       0       0       0        0        0       0       0         0        0
  06/16/18       0       0       0       0       0       0       0        0        0       0       0         0        0
  06/17/18       0       0       0       0       0       0       0        0        0       0       0         0        0
  06/18/18       0       0       0       0       0       0       0        0        0       0       0         0        0
  06/19/18       0       0       0       0       0       0       0        0        0       0       0         0        0
  06/20/18       0       0       0       0       0       0       0        0        0       0       0         0        0
  06/21/18       0       0       0       0       0       0       0        0        0       0       0         0        0
  06/22/18       0       0       0       0       0       0       0        0        0       0       0         0        0
  06/23/18       0       0       0       0       0       0       0        0        0       0       0         0        0
  06/24/18       0       0       0       0       0       0       0        0        0       0       0         0        0
  06/25/18       0       0       0       0       0       0       0        0        0       0       0         0        0
  06/26/18       0       0       0       0       0       0       0        0        0       0       0         0        0
  06/27/18       0       0       0       0       0       0       0        0        0       0       0         0        0
  06/28/18       0       0       0       0       0       0       0        0        0       0       0         0        0
  06/29/18       0       0       0       0       0       0       0        0        0       0       0         0        0
  06/30/18       0       0       0       0       0       0       0        0        0       0       0         0        0
  ------------------------------------------------------------------------------------------------------------------------------------
  DIST TOT       0       0       0       0       0       0       0        0        0       0       0         0        0

  103 = NOLLE PROS
  606 = NO BAIL
  604 = BOND TO STAND
  605 = I BONDS
  277 = EMI ORDERED
  601 = D-BONDS
  153 = C-BONDS
  894 = ELECTRONIC MONITOR
  278 = EMI ADMITTED
  279 = EMI NOT ADMITTED
11REPORT ID:  KRCBCJ01          CIRCUIT COURT OF COOK COUNTY                 PAGE:                 8
  RUN DATE :  2018-07-15      DISTRICT   CBC COUNTS FELONY
                                FROM 06/01/2018 TO 06/30/2018
  ------------------------------------------------------------------------------------------------------------------------------------
             103     606     604     605     277     601     153     TOTALS    894     278     279    RLS ON C RLS ON D
  -------- ------- ------- ------- ------- ------- ------- ------- --------  ------- ------- -------  -------- --------
  GRND TOT       0      15       2       0       0       0       0       17        0       0       0         2      230
