DISP DT,103,606,604,605,277,601,153,TOTALS,894,278,279,RLS ON C,RLS ON D,district,report_type
05/01/18,3,11,0,36,1,25,0,76,0,0,0,0,24,1,misdemeanor
05/02/18,3,8,0,16,1,24,1,53,0,0,2,0,26,1,misdemeanor
05/03/18,1,12,0,19,0,31,0,63,0,0,1,0,32,1,misdemeanor
05/04/18,2,9,0,28,0,31,0,70,0,1,0,0,32,1,misdemeanor
05/05/18,1,7,1,122,0,64,0,195,0,0,0,0,61,1,misdemeanor
05/06/18,0,6,0,108,15,62,0,191,0,0,0,0,59,1,misdemeanor
05/07/18,11,19,0,14,0,22,0,66,0,0,0,0,22,1,misdemeanor
05/08/18,0,11,0,28,1,33,0,73,0,0,0,0,33,1,misdemeanor
05/09/18,1,18,1,25,2,29,0,76,0,10,3,0,29,1,misdemeanor
05/10/18,1,4,0,35,0,20,0,60,0,2,3,0,22,1,misdemeanor
05/11/18,3,13,0,30,1,23,0,70,0,0,0,0,21,1,misdemeanor
05/12/18,0,13,4,90,0,64,1,172,0,0,0,1,69,1,misdemeanor
05/13/18,0,13,2,78,0,47,0,140,0,0,0,0,43,1,misdemeanor
05/14/18,2,10,0,26,0,17,0,55,0,0,0,0,17,1,misdemeanor
05/15/18,2,7,0,33,1,19,0,62,0,3,1,0,25,1,misdemeanor
05/16/18,3,9,0,27,2,4,0,45,0,2,0,0,5,1,misdemeanor
05/17/18,2,19,1,23,2,23,0,70,0,0,5,0,27,1,misdemeanor
05/18/18,2,9,1,29,1,13,0,55,0,1,0,0,16,1,misdemeanor
05/19/18,0,10,2,128,0,24,0,164,0,0,0,1,59,1,misdemeanor
05/20/18,1,13,3,110,0,46,0,173,0,0,0,2,58,1,misdemeanor
05/21/18,3,9,0,44,0,9,0,65,0,1,2,0,11,1,misdemeanor
05/22/18,1,12,1,27,1,23,0,65,0,2,0,0,24,1,misdemeanor
05/23/18,0,8,0,51,1,13,0,73,0,0,1,1,12,1,misdemeanor
05/24/18,1,11,1,41,0,19,0,73,0,1,0,0,18,1,misdemeanor
05/25/18,2,6,0,70,0,34,0,112,0,0,1,0,34,1,misdemeanor
05/26/18,0,17,4,99,0,65,0,185,0,0,0,5,178,1,misdemeanor
05/27/18,1,7,2,151,0,38,1,200,0,0,0,0,100,1,misdemeanor
05/28/18,0,5,4,89,26,75,1,200,0,0,0,0,133,1,misdemeanor
05/29/18,15,20,0,42,1,36,0,114,0,8,8,2,40,1,misdemeanor
05/30/18,4,12,0,19,0,40,0,75,0,1,2,2,44,1,misdemeanor
05/31/18,1,12,0,43,4,13,0,73,0,0,0,0,16,1,misdemeanor
05/01/18,0,0,0,0,0,1,0,1,0,0,0,0,0,2,misdemeanor
05/02/18,0,1,0,1,0,4,0,6,0,0,0,0,2,2,misdemeanor
05/03/18,0,0,0,2,0,4,0,6,0,0,0,0,2,2,misdemeanor
05/04/18,0,1,0,0,0,4,0,5,0,0,0,0,4,2,misdemeanor
05/05/18,0,0,0,0,0,0,0,0,0,0,0,0,0,2,misdemeanor
05/06/18,0,0,0,0,0,0,0,0,0,0,0,0,0,2,misdemeanor
05/07/18,0,0,0,3,0,3,0,6,0,0,0,0,2,2,misdemeanor
05/08/18,0,0,0,4,0,0,0,4,0,0,0,0,7,2,misdemeanor
05/09/18,1,0,0,2,0,4,0,7,0,0,0,0,1,2,misdemeanor
05/10/18,0,0,0,0,0,3,0,3,0,0,0,1,2,2,misdemeanor
05/11/18,0,0,0,4,0,2,0,6,0,0,0,0,1,2,misdemeanor
05/12/18,0,0,0,0,0,0,0,0,0,0,0,0,0,2,misdemeanor
05/13/18,0,0,0,0,0,0,0,0,0,0,0,0,0,2,misdemeanor
05/14/18,0,0,0,4,0,2,0,6,0,0,0,1,8,2,misdemeanor
05/15/18,0,1,0,0,0,4,0,5,0,0,0,0,11,2,misdemeanor
05/16/18,0,0,0,4,0,2,0,6,0,0,0,0,4,2,misdemeanor
05/17/18,1,0,0,3,0,3,0,7,0,0,0,0,4,2,misdemeanor
05/18/18,0,0,0,2,0,4,0,6,0,0,0,0,1,2,misdemeanor
05/19/18,0,0,0,0,0,0,0,0,0,0,0,0,0,2,misdemeanor
05/20/18,0,0,0,0,0,0,0,0,0,0,0,0,0,2,misdemeanor
05/21/18,0,0,0,5,0,2,0,7,0,0,0,0,2,2,misdemeanor
05/22/18,1,0,0,5,0,3,0,9,0,0,0,0,2,2,misdemeanor
05/23/18,0,0,0,3,0,5,0,8,0,0,0,0,2,2,misdemeanor
05/24/18,1,0,0,1,0,5,0,7,0,0,0,0,2,2,misdemeanor
05/25/18,0,0,0,6,0,3,0,9,0,0,0,0,4,2,misdemeanor
05/26/18,0,0,0,0,0,0,0,0,0,0,0,0,0,2,misdemeanor
05/27/18,0,0,0,0,0,0,0,0,0,0,0,0,0,2,misdemeanor
05/28/18,0,0,0,0,0,0,0,0,0,0,0,0,0,2,misdemeanor
05/29/18,2,0,0,3,0,0,0,5,0,0,0,0,0,2,misdemeanor
05/30/18,3,0,0,5,0,3,0,11,0,0,0,0,6,2,misdemeanor
05/31/18,0,0,0,5,0,4,0,9,0,0,0,0,8,2,misdemeanor
05/01/18,1,0,1,5,0,5,0,12,0,0,0,0,6,3,misdemeanor
05/02/18,0,0,1,1,2,12,0,16,0,0,0,1,5,3,misdemeanor
05/03/18,0,0,0,5,0,4,1,10,0,0,0,0,1,3,misdemeanor
05/04/18,0,1,0,4,1,3,0,9,0,0,0,0,3,3,misdemeanor
05/05/18,0,0,0,0,0,0,0,0,0,0,0,0,0,3,misdemeanor
05/06/18,0,0,0,0,0,0,0,0,0,0,0,0,0,3,misdemeanor
05/07/18,0,0,0,3,0,3,0,6,0,0,0,1,8,3,misdemeanor
05/08/18,0,0,0,2,0,4,0,6,0,0,0,0,13,3,misdemeanor
05/09/18,2,0,0,1,0,3,0,6,0,0,0,0,4,3,misdemeanor
05/10/18,1,1,0,2,0,4,0,8,1,0,0,0,6,3,misdemeanor
05/11/18,0,0,1,4,0,5,0,10,0,0,0,0,4,3,misdemeanor
05/12/18,0,0,0,0,0,0,0,0,0,0,0,0,0,3,misdemeanor
05/13/18,0,0,0,0,0,0,0,0,0,0,0,0,0,3,misdemeanor
05/14/18,0,0,0,3,0,0,0,3,0,0,0,0,2,3,misdemeanor
05/15/18,0,1,0,2,2,4,0,9,0,0,0,0,7,3,misdemeanor
05/16/18,0,0,0,5,0,3,0,8,0,0,0,0,3,3,misdemeanor
05/17/18,0,0,3,2,0,3,0,8,0,0,0,0,4,3,misdemeanor
05/18/18,0,0,1,0,0,2,0,3,0,0,0,0,2,3,misdemeanor
05/19/18,0,0,0,0,0,0,0,0,0,0,0,0,0,3,misdemeanor
05/20/18,0,0,0,0,0,0,0,0,0,0,0,0,0,3,misdemeanor
05/21/18,0,0,0,3,0,3,0,6,0,0,0,0,2,3,misdemeanor
05/22/18,1,0,0,5,1,3,0,10,0,0,0,0,6,3,misdemeanor
05/23/18,1,0,2,3,0,3,0,9,0,0,0,0,2,3,misdemeanor
05/24/18,0,0,1,8,0,5,0,14,0,0,0,0,2,3,misdemeanor
05/25/18,0,1,0,3,0,2,0,6,0,0,0,0,6,3,misdemeanor
05/26/18,0,0,0,0,0,0,0,0,0,0,0,0,0,3,misdemeanor
05/27/18,0,0,0,0,0,0,0,0,0,0,0,0,0,3,misdemeanor
05/28/18,0,0,0,0,0,0,0,0,0,0,0,0,0,3,misdemeanor
05/29/18,1,0,1,8,1,0,0,11,0,0,0,0,1,3,misdemeanor
05/30/18,3,0,0,2,0,4,0,9,0,0,0,0,11,3,misdemeanor
05/31/18,1,0,0,4,0,4,0,9,0,0,0,0,6,3,misdemeanor
05/01/18,0,0,0,1,1,1,0,3,0,0,0,1,6,4,misdemeanor
05/02/18,1,0,0,3,0,4,0,8,0,0,0,0,3,4,misdemeanor
05/03/18,0,0,0,0,0,5,0,5,0,0,0,0,3,4,misdemeanor
05/04/18,3,0,0,6,1,6,0,16,0,0,0,0,3,4,misdemeanor
05/05/18,0,0,0,0,0,0,0,0,0,0,0,0,0,4,misdemeanor
05/06/18,0,0,0,0,0,0,0,0,0,0,0,0,0,4,misdemeanor
05/07/18,0,0,0,4,1,7,0,12,1,0,0,0,3,4,misdemeanor
05/08/18,4,0,1,4,0,11,0,20,0,0,0,0,8,4,misdemeanor
05/09/18,1,0,4,2,3,6,0,16,0,0,0,0,6,4,misdemeanor
05/10/18,2,0,0,4,1,8,0,15,0,0,0,0,10,4,misdemeanor
05/11/18,0,0,0,1,4,5,0,10,0,0,0,0,3,4,misdemeanor
05/12/18,0,0,0,0,0,0,0,0,0,0,0,0,0,4,misdemeanor
05/13/18,0,0,0,0,0,0,0,0,0,0,0,0,0,4,misdemeanor
05/14/18,6,0,0,3,1,6,0,16,0,0,0,0,9,4,misdemeanor
05/15/18,8,0,4,5,0,1,0,18,0,0,0,0,7,4,misdemeanor
05/16/18,1,0,0,0,2,7,0,10,0,0,0,0,16,4,misdemeanor
05/17/18,2,0,0,0,2,4,0,8,0,0,0,0,6,4,misdemeanor
05/18/18,0,0,0,1,4,7,0,12,1,0,0,0,0,4,misdemeanor
05/19/18,0,0,0,0,0,0,0,0,0,0,0,0,0,4,misdemeanor
05/20/18,0,0,0,0,0,0,0,0,0,0,0,0,0,4,misdemeanor
05/21/18,0,0,0,3,2,3,0,8,0,0,0,0,8,4,misdemeanor
05/22/18,5,0,5,2,0,10,0,22,0,0,0,0,11,4,misdemeanor
05/23/18,0,0,0,5,0,7,0,12,0,0,0,0,12,4,misdemeanor
05/24/18,4,0,0,2,0,5,0,11,0,0,0,2,13,4,misdemeanor
05/25/18,1,0,0,4,3,9,0,17,0,0,0,0,4,4,misdemeanor
05/26/18,0,0,0,0,0,0,0,0,0,0,0,0,0,4,misdemeanor
05/27/18,0,0,0,0,0,0,0,0,0,0,0,0,0,4,misdemeanor
05/28/18,0,0,0,0,0,0,0,0,0,0,0,0,0,4,misdemeanor
05/29/18,1,0,0,7,1,4,0,13,0,0,0,0,10,4,misdemeanor
05/30/18,5,1,5,1,0,4,0,16,0,0,0,0,21,4,misdemeanor
05/31/18,3,0,0,3,2,9,0,17,0,0,0,0,8,4,misdemeanor
05/01/18,1,0,0,1,0,2,0,4,0,0,0,0,1,5,misdemeanor
05/02/18,2,0,0,4,0,6,0,12,0,0,0,0,5,5,misdemeanor
05/03/18,1,0,0,6,0,4,0,11,0,0,0,0,13,5,misdemeanor
05/04/18,1,0,0,2,0,2,0,5,0,0,0,0,4,5,misdemeanor
05/05/18,0,0,0,0,0,0,0,0,0,0,0,0,0,5,misdemeanor
05/06/18,0,0,0,0,0,0,0,0,0,0,0,0,0,5,misdemeanor
05/07/18,0,0,0,6,0,7,0,13,0,0,0,0,10,5,misdemeanor
05/08/18,0,1,0,7,0,5,0,13,0,0,0,0,3,5,misdemeanor
05/09/18,1,0,0,3,2,5,0,11,0,0,0,2,20,5,misdemeanor
05/10/18,1,0,0,6,1,6,0,14,0,0,0,0,11,5,misdemeanor
05/11/18,2,0,0,5,1,6,0,14,0,0,0,0,8,5,misdemeanor
05/12/18,0,0,0,0,0,0,0,0,0,0,0,0,0,5,misdemeanor
05/13/18,0,0,0,0,0,0,0,0,0,0,0,0,0,5,misdemeanor
05/14/18,0,0,0,5,0,5,0,10,0,0,0,0,9,5,misdemeanor
05/15/18,3,1,1,8,0,2,0,15,0,0,0,0,7,5,misdemeanor
05/16/18,2,0,0,4,1,6,0,13,0,0,0,0,3,5,misdemeanor
05/17/18,0,0,1,6,1,5,0,13,0,0,0,0,14,5,misdemeanor
05/18/18,0,0,0,7,0,5,0,12,0,0,0,0,1,5,misdemeanor
05/19/18,0,0,0,0,0,0,0,0,0,0,0,0,0,5,misdemeanor
05/20/18,0,0,0,0,0,0,0,0,0,0,0,0,0,5,misdemeanor
05/21/18,1,0,0,5,0,8,0,14,0,0,0,0,7,5,misdemeanor
05/22/18,1,1,0,3,0,4,0,9,0,0,0,1,5,5,misdemeanor
05/23/18,5,0,0,3,1,9,0,18,0,0,0,0,22,5,misdemeanor
05/24/18,2,0,0,7,0,6,0,15,0,0,0,1,6,5,misdemeanor
05/25/18,1,1,0,5,0,4,0,11,0,0,0,0,7,5,misdemeanor
05/26/18,0,0,0,0,0,0,0,0,0,0,0,0,0,5,misdemeanor
05/27/18,0,0,0,0,0,0,0,0,0,0,0,0,0,5,misdemeanor
05/28/18,0,0,0,0,0,0,0,0,0,0,0,0,0,5,misdemeanor
05/29/18,1,0,1,7,0,2,0,11,0,0,0,0,3,5,misdemeanor
05/30/18,6,2,0,3,0,7,0,18,0,0,0,0,8,5,misdemeanor
05/31/18,3,0,0,3,0,3,0,9,0,0,0,1,25,5,misdemeanor
05/01/18,0,1,0,6,0,5,0,12,0,0,0,0,2,6,misdemeanor
05/02/18,3,0,0,12,0,11,0,26,1,0,0,0,1,6,misdemeanor
05/03/18,1,0,1,8,0,7,0,17,1,0,0,0,6,6,misdemeanor
05/04/18,0,0,0,2,0,5,0,7,0,0,0,0,5,6,misdemeanor
05/05/18,0,0,0,0,0,0,0,0,0,0,0,0,0,6,misdemeanor
05/06/18,0,0,0,0,0,0,0,0,0,0,0,0,0,6,misdemeanor
05/07/18,0,0,0,4,0,7,0,11,0,0,0,0,3,6,misdemeanor
05/08/18,1,1,2,5,0,7,0,16,1,0,0,0,15,6,misdemeanor
05/09/18,2,0,0,17,0,0,0,19,1,0,0,0,7,6,misdemeanor
05/10/18,0,2,0,9,0,9,0,20,0,0,0,0,4,6,misdemeanor
05/11/18,2,1,1,17,0,5,0,26,1,0,0,0,1,6,misdemeanor
05/12/18,0,0,0,0,0,0,0,0,0,0,0,0,0,6,misdemeanor
05/13/18,0,0,0,0,0,0,0,0,0,0,0,0,0,6,misdemeanor
05/14/18,1,1,1,12,0,2,0,17,0,0,0,0,1,6,misdemeanor
05/15/18,4,3,1,5,0,14,0,27,0,0,0,0,6,6,misdemeanor
05/16/18,1,2,0,10,0,7,0,20,0,0,0,0,4,6,misdemeanor
05/17/18,5,0,0,14,0,3,0,22,1,0,0,0,3,6,misdemeanor
05/18/18,1,1,1,7,1,9,0,20,0,0,0,0,15,6,misdemeanor
05/19/18,0,0,0,0,0,0,0,0,0,0,0,0,0,6,misdemeanor
05/20/18,0,0,0,0,0,0,0,0,0,0,0,0,0,6,misdemeanor
05/21/18,5,2,0,9,0,5,0,21,0,0,0,0,10,6,misdemeanor
05/22/18,6,1,1,6,0,7,0,21,0,0,0,0,1,6,misdemeanor
05/23/18,1,2,0,9,0,5,0,17,1,0,0,0,5,6,misdemeanor
05/24/18,2,0,0,9,0,7,0,18,0,0,0,0,1,6,misdemeanor
05/25/18,3,0,0,5,0,8,0,16,0,0,0,0,4,6,misdemeanor
05/26/18,0,0,0,0,0,0,0,0,0,0,0,0,0,6,misdemeanor
05/27/18,0,0,0,0,0,0,0,0,0,0,0,0,0,6,misdemeanor
05/28/18,0,0,0,0,0,0,0,0,0,0,0,0,0,6,misdemeanor
05/29/18,7,0,1,13,0,8,0,29,0,0,0,2,11,6,misdemeanor
05/30/18,6,3,1,5,0,6,0,21,0,0,0,0,3,6,misdemeanor
05/31/18,3,0,1,10,0,7,0,21,0,0,0,0,4,6,misdemeanor
05/01/18,0,0,0,0,0,0,0,0,0,0,0,0,0,7,misdemeanor
05/02/18,0,0,0,0,0,0,0,0,0,0,0,0,0,7,misdemeanor
05/03/18,0,0,0,0,0,0,0,0,0,0,0,0,0,7,misdemeanor
05/04/18,0,0,0,0,0,0,0,0,0,0,0,0,0,7,misdemeanor
05/05/18,0,0,0,0,0,0,0,0,0,0,0,0,0,7,misdemeanor
05/06/18,0,0,0,0,0,0,0,0,0,0,0,0,0,7,misdemeanor
05/07/18,0,0,0,0,0,0,0,0,0,0,0,0,0,7,misdemeanor
05/08/18,0,0,0,0,0,0,0,0,0,0,0,0,0,7,misdemeanor
05/09/18,0,0,0,0,0,0,0,0,0,0,0,0,0,7,misdemeanor
05/10/18,0,0,0,0,0,0,0,0,0,0,0,0,0,7,misdemeanor
05/11/18,0,0,0,0,0,0,0,0,0,0,0,0,0,7,misdemeanor
05/12/18,0,0,0,0,0,0,0,0,0,0,0,0,0,7,misdemeanor
05/13/18,0,0,0,0,0,0,0,0,0,0,0,0,0,7,misdemeanor
05/14/18,0,0,0,0,0,0,0,0,0,0,0,0,0,7,misdemeanor
05/15/18,0,0,0,0,0,0,0,0,0,0,0,0,0,7,misdemeanor
05/16/18,0,0,0,0,0,0,0,0,0,0,0,0,0,7,misdemeanor
05/17/18,0,0,0,0,0,0,0,0,0,0,0,0,0,7,misdemeanor
05/18/18,0,0,0,0,0,0,0,0,0,0,0,0,0,7,misdemeanor
05/19/18,0,0,0,0,0,0,0,0,0,0,0,0,0,7,misdemeanor
05/20/18,0,0,0,0,0,0,0,0,0,0,0,0,0,7,misdemeanor
05/21/18,0,0,0,0,0,0,0,0,0,0,0,0,0,7,misdemeanor
05/22/18,0,0,0,0,0,0,0,0,0,0,0,0,0,7,misdemeanor
05/23/18,0,0,0,0,0,0,0,0,0,0,0,0,0,7,misdemeanor
05/24/18,0,0,0,0,0,0,0,0,0,0,0,0,0,7,misdemeanor
05/25/18,0,0,0,0,0,0,0,0,0,0,0,0,0,7,misdemeanor
05/26/18,0,0,0,0,0,0,0,0,0,0,0,0,0,7,misdemeanor
05/27/18,0,0,0,0,0,0,0,0,0,0,0,0,0,7,misdemeanor
05/28/18,0,0,0,0,0,0,0,0,0,0,0,0,0,7,misdemeanor
05/29/18,0,0,0,0,0,0,0,0,0,0,0,0,0,7,misdemeanor
05/30/18,0,0,0,0,0,0,0,0,0,0,0,0,0,7,misdemeanor
05/31/18,0,0,0,0,0,0,0,0,0,0,0,0,0,7,misdemeanor
