DISP DT,103,606,604,605,277,601,153,TOTALS,894,278,279,RLS ON C,RLS ON D,district,report_type
06/01/18,2,5,0,24,14,13,0,58,0,0,0,0,13,1,misdemeanor
06/02/18,1,12,0,110,8,45,2,178,3,0,0,2,38,1,misdemeanor
06/03/18,0,8,0,101,0,44,0,153,0,0,0,0,39,1,misdemeanor
06/04/18,1,6,0,42,0,18,0,67,0,4,6,0,19,1,misdemeanor
06/05/18,3,15,0,27,1,9,0,55,1,0,0,0,11,1,misdemeanor
06/06/18,1,11,0,31,0,15,0,58,0,1,0,0,14,1,misdemeanor
06/07/18,4,7,0,23,0,33,0,67,0,0,0,0,31,1,misdemeanor
06/08/18,0,12,1,32,1,7,0,53,0,0,0,0,11,1,misdemeanor
06/09/18,0,20,5,120,0,39,0,184,0,0,0,0,37,1,misdemeanor
06/10/18,1,14,2,120,0,24,0,161,0,0,0,0,122,1,misdemeanor
06/11/18,1,10,0,19,1,31,0,62,0,0,0,0,31,1,misdemeanor
06/12/18,0,8,0,19,1,26,0,54,0,0,0,0,25,1,misdemeanor
06/13/18,4,22,1,22,0,21,0,70,0,2,4,0,34,1,misdemeanor
06/14/18,4,12,0,27,2,13,0,58,0,0,0,1,13,1,misdemeanor
06/15/18,0,10,0,26,1,24,0,61,0,0,0,9,76,1,misdemeanor
06/16/18,0,17,3,110,0,50,0,180,0,0,0,1,53,1,misdemeanor
06/17/18,0,8,3,90,0,32,0,133,0,0,0,5,77,1,misdemeanor
06/18/18,3,12,0,21,0,13,0,49,0,0,0,0,11,1,misdemeanor
06/19/18,3,11,0,25,0,22,0,61,2,0,0,1,20,1,misdemeanor
06/20/18,2,14,0,39,1,14,0,70,1,1,0,0,19,1,misdemeanor
06/21/18,3,8,1,24,0,30,0,66,0,0,0,0,31,1,misdemeanor
06/22/18,1,8,0,20,1,36,0,66,0,0,1,0,44,1,misdemeanor
06/23/18,3,7,8,88,0,48,0,154,0,0,0,0,62,1,misdemeanor
06/24/18,0,6,5,76,0,57,0,144,0,0,0,0,100,1,misdemeanor
06/25/18,1,7,0,28,0,16,0,52,0,0,0,0,14,1,misdemeanor
06/26/18,1,9,2,38,0,11,0,61,0,0,0,0,16,1,misdemeanor
06/27/18,1,18,0,33,0,13,0,65,0,0,0,0,15,1,misdemeanor
06/28/18,3,13,0,43,1,18,0,78,0,0,0,0,25,1,misdemeanor
06/29/18,2,13,2,24,0,14,0,55,0,0,0,4,81,1,misdemeanor
06/30/18,0,12,4,72,0,53,0,141,0,0,0,5,88,1,misdemeanor
06/01/18,0,0,0,1,0,1,0,2,0,0,0,0,5,2,misdemeanor
06/02/18,0,0,0,0,0,0,0,0,0,0,0,0,0,2,misdemeanor
06/03/18,0,0,0,0,0,0,0,0,0,0,0,0,0,2,misdemeanor
06/04/18,1,0,0,0,0,1,0,2,0,0,0,0,13,2,misdemeanor
06/05/18,0,0,0,0,0,1,0,1,0,0,0,0,1,2,misdemeanor
06/06/18,0,0,0,2,0,4,0,6,0,0,0,1,3,2,misdemeanor
06/07/18,1,1,0,1,0,4,0,7,0,0,0,0,3,2,misdemeanor
06/08/18,0,1,0,1,0,1,0,3,0,0,0,0,0,2,misdemeanor
06/09/18,0,0,0,0,0,0,0,0,0,0,0,0,0,2,misdemeanor
06/10/18,0,0,0,0,0,0,0,0,0,0,0,0,0,2,misdemeanor
06/11/18,0,0,0,2,0,2,0,4,0,0,0,0,0,2,misdemeanor
06/12/18,0,0,4,0,0,7,0,11,0,0,0,0,9,2,misdemeanor
06/13/18,1,1,0,0,0,3,0,5,0,0,0,0,6,2,misdemeanor
06/14/18,0,0,0,4,0,1,0,5,0,0,0,0,2,2,misdemeanor
06/15/18,1,0,0,1,0,10,0,12,0,0,0,0,2,2,misdemeanor
06/16/18,0,0,0,0,0,0,0,0,0,0,0,0,0,2,misdemeanor
06/17/18,0,0,0,0,0,0,0,0,0,0,0,0,0,2,misdemeanor
06/18/18,1,0,0,1,0,2,0,4,0,0,0,0,0,2,misdemeanor
06/19/18,0,0,0,1,0,1,0,2,0,0,0,0,1,2,misdemeanor
06/20/18,1,1,1,3,0,1,0,7,0,0,0,0,2,2,misdemeanor
06/21/18,2,0,0,2,0,0,0,4,0,0,0,0,0,2,misdemeanor
06/22/18,0,1,0,4,0,0,0,5,0,0,0,1,1,2,misdemeanor
06/23/18,0,0,0,0,0,0,0,0,0,0,0,0,0,2,misdemeanor
06/24/18,0,0,0,0,0,0,0,0,0,0,0,0,0,2,misdemeanor
06/25/18,3,0,0,0,0,0,0,3,0,0,0,1,4,2,misdemeanor
06/26/18,0,0,1,1,0,5,0,7,0,0,0,0,4,2,misdemeanor
06/27/18,2,0,0,5,0,3,0,10,1,0,0,5,5,2,misdemeanor
06/28/18,0,0,0,3,0,5,0,8,0,0,0,0,1,2,misdemeanor
06/29/18,0,0,0,5,0,4,0,9,0,0,0,1,9,2,misdemeanor
06/30/18,0,0,0,0,0,0,0,0,0,0,0,0,0,2,misdemeanor
06/01/18,0,0,0,5,0,2,0,7,0,0,0,0,0,3,misdemeanor
06/02/18,0,0,0,0,0,0,0,0,0,0,0,0,0,3,misdemeanor
06/03/18,0,0,0,0,0,0,0,0,0,0,0,0,0,3,misdemeanor
06/04/18,0,0,0,7,1,4,0,12,0,0,0,0,4,3,misdemeanor
06/05/18,0,0,0,2,0,5,0,7,0,0,0,0,2,3,misdemeanor
06/06/18,0,0,1,6,0,3,0,10,0,0,0,0,9,3,misdemeanor
06/07/18,0,0,2,1,0,5,0,8,0,0,0,0,2,3,misdemeanor
06/08/18,0,0,0,0,0,3,0,3,0,0,0,0,2,3,misdemeanor
06/09/18,0,0,0,0,0,0,0,0,0,0,0,0,0,3,misdemeanor
06/10/18,0,0,0,0,0,0,0,0,0,0,0,0,0,3,misdemeanor
06/11/18,0,0,0,3,0,5,0,8,0,0,0,1,12,3,misdemeanor
06/12/18,0,0,0,2,1,2,0,5,0,0,0,0,0,3,misdemeanor
06/13/18,3,0,0,2,0,4,0,9,0,0,0,0,0,3,misdemeanor
06/14/18,0,0,0,4,0,0,0,4,0,0,0,0,6,3,misdemeanor
06/15/18,1,0,0,6,0,2,0,9,0,0,0,0,2,3,misdemeanor
06/16/18,0,0,0,0,0,0,0,0,0,0,0,0,0,3,misdemeanor
06/17/18,0,0,0,0,0,0,0,0,0,0,0,0,0,3,misdemeanor
06/18/18,0,0,0,6,0,7,0,13,0,1,0,0,4,3,misdemeanor
06/19/18,0,0,0,2,0,8,0,10,0,0,0,0,14,3,misdemeanor
06/20/18,0,0,0,6,0,4,0,10,0,0,0,0,5,3,misdemeanor
06/21/18,0,0,0,4,0,5,0,9,0,0,0,0,10,3,misdemeanor
06/22/18,0,1,0,3,0,8,0,12,0,0,0,0,7,3,misdemeanor
06/23/18,0,0,0,0,0,0,0,0,0,0,0,0,0,3,misdemeanor
06/24/18,0,0,0,0,0,0,0,0,0,0,0,0,0,3,misdemeanor
06/25/18,1,0,0,3,0,7,0,11,0,0,0,0,6,3,misdemeanor
06/26/18,1,0,1,5,0,7,0,14,0,2,0,0,9,3,misdemeanor
06/27/18,1,1,0,0,0,6,0,8,0,0,0,0,8,3,misdemeanor
06/28/18,2,0,0,3,1,4,0,10,0,0,0,0,4,3,misdemeanor
06/29/18,0,0,1,2,0,5,0,8,0,0,0,0,1,3,misdemeanor
06/30/18,0,0,0,0,0,0,0,0,0,0,0,0,0,3,misdemeanor
06/01/18,0,0,0,11,0,8,0,19,0,0,0,0,2,4,misdemeanor
06/02/18,0,0,0,0,0,0,0,0,0,0,0,0,0,4,misdemeanor
06/03/18,0,0,0,0,0,0,0,0,0,0,0,0,0,4,misdemeanor
06/04/18,1,0,0,8,0,7,0,16,0,0,0,0,3,4,misdemeanor
06/05/18,2,0,0,4,0,8,0,14,0,0,0,0,8,4,misdemeanor
06/06/18,1,0,0,2,0,8,0,11,0,0,0,0,6,4,misdemeanor
06/07/18,3,0,0,4,0,8,0,15,0,0,0,0,5,4,misdemeanor
06/08/18,0,0,0,8,1,9,0,18,0,0,0,0,4,4,misdemeanor
06/09/18,0,0,0,0,0,0,0,0,0,0,0,0,0,4,misdemeanor
06/10/18,0,0,0,0,0,0,0,0,0,0,0,0,0,4,misdemeanor
06/11/18,1,0,0,8,0,4,0,13,0,0,0,0,14,4,misdemeanor
06/12/18,5,2,9,5,2,9,0,32,0,0,0,0,11,4,misdemeanor
06/13/18,3,0,1,8,0,7,0,19,1,0,0,0,2,4,misdemeanor
06/14/18,4,0,0,1,0,2,0,7,0,0,0,0,2,4,misdemeanor
06/15/18,0,0,0,10,2,2,0,14,0,0,0,0,2,4,misdemeanor
06/16/18,0,0,0,0,0,0,0,0,0,0,0,0,0,4,misdemeanor
06/17/18,0,0,0,0,0,0,0,0,0,0,0,0,0,4,misdemeanor
06/18/18,5,0,0,4,0,4,0,13,0,0,0,0,7,4,misdemeanor
06/19/18,2,0,1,1,0,4,0,8,0,0,0,0,6,4,misdemeanor
06/20/18,2,0,1,2,0,11,0,16,0,0,0,0,3,4,misdemeanor
06/21/18,3,0,0,5,0,3,0,11,0,0,0,0,7,4,misdemeanor
06/22/18,2,0,0,2,0,5,0,9,0,0,0,0,5,4,misdemeanor
06/23/18,0,0,0,0,0,0,0,0,0,0,0,0,0,4,misdemeanor
06/24/18,0,0,0,0,0,0,0,0,0,0,0,0,1,4,misdemeanor
06/25/18,7,0,0,2,0,5,0,14,0,0,0,0,5,4,misdemeanor
06/26/18,5,0,2,4,0,11,0,22,0,0,0,0,6,4,misdemeanor
06/27/18,4,0,0,5,0,13,0,22,0,0,0,0,8,4,misdemeanor
06/28/18,3,0,1,5,0,8,0,17,0,0,0,0,6,4,misdemeanor
06/29/18,1,0,2,4,0,9,0,16,0,0,0,0,18,4,misdemeanor
06/30/18,0,0,0,0,0,0,0,0,0,0,0,0,0,4,misdemeanor
06/01/18,0,0,0,5,0,2,0,7,0,0,0,0,7,5,misdemeanor
06/02/18,0,0,0,0,0,0,0,0,0,0,0,0,0,5,misdemeanor
06/03/18,0,0,0,0,0,0,0,0,0,0,0,0,0,5,misdemeanor
06/04/18,1,0,0,7,0,6,0,14,0,0,0,0,9,5,misdemeanor
06/05/18,2,0,0,3,0,6,0,11,0,0,0,0,4,5,misdemeanor
06/06/18,0,0,0,2,0,4,0,6,0,0,0,1,16,5,misdemeanor
06/07/18,0,0,0,5,0,7,0,12,0,0,0,0,5,5,misdemeanor
06/08/18,0,0,0,2,0,7,0,9,0,0,0,0,5,5,misdemeanor
06/09/18,0,0,0,0,0,0,0,0,0,0,0,0,0,5,misdemeanor
06/10/18,0,0,0,0,0,0,0,0,0,0,0,0,0,5,misdemeanor
06/11/18,0,0,0,6,0,2,0,8,0,0,0,0,19,5,misdemeanor
06/12/18,1,0,0,6,0,2,0,9,0,0,0,0,3,5,misdemeanor
06/13/18,1,0,0,3,0,4,0,8,0,0,0,0,4,5,misdemeanor
06/14/18,1,0,0,5,0,3,0,9,0,0,0,0,0,5,misdemeanor
06/15/18,2,0,0,5,0,8,0,15,0,0,0,0,2,5,misdemeanor
06/16/18,0,0,0,0,0,0,0,0,0,0,0,0,0,5,misdemeanor
06/17/18,0,0,0,0,0,0,0,0,0,0,0,0,0,5,misdemeanor
06/18/18,2,0,0,6,0,4,0,12,0,0,0,0,12,5,misdemeanor
06/19/18,1,0,0,0,0,4,0,5,0,0,0,0,3,5,misdemeanor
06/20/18,0,0,0,2,0,3,0,5,0,0,0,0,13,5,misdemeanor
06/21/18,1,0,0,3,0,3,0,7,0,0,0,0,14,5,misdemeanor
06/22/18,0,1,0,2,0,3,0,6,0,0,0,0,2,5,misdemeanor
06/23/18,0,0,0,0,0,0,0,0,0,0,0,0,0,5,misdemeanor
06/24/18,0,0,0,0,0,0,0,0,0,0,0,0,0,5,misdemeanor
06/25/18,1,0,0,3,0,5,0,9,0,0,0,1,18,5,misdemeanor
06/26/18,4,0,0,3,0,2,0,9,0,0,0,0,3,5,misdemeanor
06/27/18,0,0,0,9,0,8,0,17,0,0,0,0,5,5,misdemeanor
06/28/18,4,0,0,4,0,10,0,18,0,0,0,0,7,5,misdemeanor
06/29/18,3,0,0,3,0,5,0,11,0,0,0,0,16,5,misdemeanor
06/30/18,0,0,0,0,0,0,0,0,0,0,0,0,0,5,misdemeanor
06/01/18,2,1,0,1,0,5,0,9,0,0,0,0,3,6,misdemeanor
06/02/18,0,0,0,0,0,0,0,0,0,0,0,0,0,6,misdemeanor
06/03/18,0,0,0,0,0,0,0,0,0,0,0,0,0,6,misdemeanor
06/04/18,1,0,1,14,0,6,0,22,0,0,0,0,4,6,misdemeanor
06/05/18,2,1,1,8,0,4,0,16,1,0,0,0,7,6,misdemeanor
06/06/18,5,2,1,11,0,10,0,29,1,0,0,1,12,6,misdemeanor
06/07/18,0,0,0,8,0,5,0,13,0,0,0,0,14,6,misdemeanor
06/08/18,1,0,0,6,0,6,0,13,2,0,0,0,10,6,misdemeanor
06/09/18,0,0,0,0,0,0,0,0,0,0,0,0,0,6,misdemeanor
06/10/18,0,0,0,0,0,0,0,0,0,0,0,0,0,6,misdemeanor
06/11/18,0,0,0,7,0,7,0,14,0,0,0,0,4,6,misdemeanor
06/12/18,1,1,1,9,0,1,0,13,0,0,0,0,0,6,misdemeanor
06/13/18,3,1,2,5,0,10,0,21,1,0,0,0,13,6,misdemeanor
06/14/18,1,0,0,5,0,3,0,9,1,0,0,0,4,6,misdemeanor
06/15/18,0,1,2,10,0,5,0,18,0,0,0,0,1,6,misdemeanor
06/16/18,0,0,0,0,0,0,0,0,0,0,0,0,0,6,misdemeanor
06/17/18,0,0,0,0,0,0,0,0,0,0,0,0,0,6,misdemeanor
06/18/18,3,0,0,12,0,7,0,22,2,0,0,0,3,6,misdemeanor
06/19/18,3,1,0,11,0,6,0,21,1,0,0,0,9,6,misdemeanor
06/20/18,1,1,2,17,0,9,0,30,0,0,0,0,3,6,misdemeanor
06/21/18,1,2,0,4,0,10,0,17,0,0,0,0,5,6,misdemeanor
06/22/18,3,0,1,9,0,14,0,27,0,0,0,0,8,6,misdemeanor
06/23/18,0,0,0,0,0,0,0,0,0,0,0,0,0,6,misdemeanor
06/24/18,0,0,0,0,0,0,0,0,0,0,0,0,0,6,misdemeanor
06/25/18,6,1,2,3,0,3,0,15,0,0,0,0,2,6,misdemeanor
06/26/18,6,0,1,14,0,6,0,27,0,0,0,0,2,6,misdemeanor
06/27/18,9,1,0,16,0,6,0,32,0,0,0,0,3,6,misdemeanor
06/28/18,5,0,1,7,0,6,0,19,0,0,0,0,8,6,misdemeanor
06/29/18,3,0,0,9,0,0,0,12,0,0,0,0,0,6,misdemeanor
06/30/18,0,0,0,0,0,0,0,0,0,0,0,0,0,6,misdemeanor
06/01/18,0,0,0,0,0,0,0,0,0,0,0,0,0,7,misdemeanor
06/02/18,0,0,0,0,0,0,0,0,0,0,0,0,0,7,misdemeanor
06/03/18,0,0,0,0,0,0,0,0,0,0,0,0,0,7,misdemeanor
06/04/18,0,0,0,0,0,0,0,0,0,0,0,0,0,7,misdemeanor
06/05/18,0,0,0,0,0,0,0,0,0,0,0,0,0,7,misdemeanor
06/06/18,0,0,0,0,0,0,0,0,0,0,0,0,0,7,misdemeanor
06/07/18,0,0,0,0,0,0,0,0,0,0,0,0,0,7,misdemeanor
06/08/18,0,0,0,0,0,0,0,0,0,0,0,0,0,7,misdemeanor
06/09/18,0,0,0,0,0,0,0,0,0,0,0,0,0,7,misdemeanor
06/10/18,0,0,0,0,0,0,0,0,0,0,0,0,0,7,misdemeanor
06/11/18,0,0,0,0,0,0,0,0,0,0,0,0,0,7,misdemeanor
06/12/18,0,0,0,0,0,0,0,0,0,0,0,0,0,7,misdemeanor
06/13/18,0,0,0,0,0,0,0,0,0,0,0,0,0,7,misdemeanor
06/14/18,0,0,0,0,0,0,0,0,0,0,0,0,0,7,misdemeanor
06/15/18,0,0,0,0,0,0,0,0,0,0,0,0,0,7,misdemeanor
06/16/18,0,0,0,0,0,0,0,0,0,0,0,0,0,7,misdemeanor
06/17/18,0,0,0,0,0,0,0,0,0,0,0,0,0,7,misdemeanor
06/18/18,0,0,0,0,0,0,0,0,0,0,0,0,0,7,misdemeanor
06/19/18,0,0,0,0,0,0,0,0,0,0,0,0,0,7,misdemeanor
06/20/18,0,0,0,0,0,0,0,0,0,0,0,0,0,7,misdemeanor
06/21/18,0,0,0,0,0,0,0,0,0,0,0,0,0,7,misdemeanor
06/22/18,0,0,0,0,0,0,0,0,0,0,0,0,0,7,misdemeanor
06/23/18,0,0,0,0,0,0,0,0,0,0,0,0,0,7,misdemeanor
06/24/18,0,0,0,0,0,0,0,0,0,0,0,0,0,7,misdemeanor
06/25/18,0,0,0,0,0,0,0,0,0,0,0,0,0,7,misdemeanor
06/26/18,0,0,0,0,0,0,0,0,0,0,0,0,0,7,misdemeanor
06/27/18,0,0,0,0,0,0,0,0,0,0,0,0,0,7,misdemeanor
06/28/18,0,0,0,0,0,0,0,0,0,0,0,0,0,7,misdemeanor
06/29/18,0,0,0,0,0,0,0,0,0,0,0,0,0,7,misdemeanor
06/30/18,0,0,0,0,0,0,0,0,0,0,0,0,0,7,misdemeanor
