DISP DT,Nolle Pros,No Bail,Bond to Stand,I-Bonds,EMI,D-Bonds,C-Bonds,TOTALS,Electronic Monitor,Admit to Sheriff EM Prg,Not Admitted to EM Prg,RLS ON C,RLS ON D
01/01/18,0,6,0,76,12,22,0,116,0,0,0,0,18
01/02/18,1,5,0,19,0,5,0,30,0,6,4,0,17
01/03/18,0,10,0,44,1,5,0,60,0,0,0,0,12
01/04/18,0,3,0,24,11,24,0,62,0,3,2,0,23
01/05/18,7,5,0,19,6,23,0,60,0,3,9,0,22
01/06/18,0,9,1,82,8,29,0,129,0,0,0,0,26
01/07/18,0,6,1,68,10,39,0,124,0,0,0,0,34
01/08/18,0,7,0,15,3,4,1,30,0,9,11,1,4
01/09/18,1,1,0,31,1,26,0,60,0,4,1,0,26
01/10/18,2,6,0,42,2,21,0,73,0,3,3,1,32
01/11/18,0,11,1,54,1,2,0,69,0,2,1,0,4
01/12/18,5,7,0,39,1,4,0,56,0,0,0,0,4
01/13/18,1,5,5,99,0,9,1,120,0,0,0,1,22
01/14/18,0,9,3,124,1,16,0,153,0,0,0,0,107
01/15/18,0,11,0,93,1,7,0,112,0,0,0,0,9
01/16/18,2,5,0,15,1,18,0,41,0,2,2,0,17
01/17/18,3,17,0,53,2,2,0,77,0,0,0,0,1
01/18/18,1,12,0,33,0,31,0,77,0,2,1,0,33
01/19/18,0,16,1,51,3,4,0,75,0,2,4,0,4
01/20/18,1,21,4,155,0,19,0,200,0,0,0,0,65
01/21/18,0,14,5,123,0,37,0,179,0,0,0,2,66
01/22/18,2,17,0,49,1,5,0,74,0,3,2,0,8
01/23/18,1,16,0,53,6,15,0,91,0,5,2,0,19
01/24/18,3,10,1,26,0,26,1,67,0,3,3,4,63
01/25/18,4,10,1,46,1,1,0,63,0,2,1,0,9
01/26/18,1,13,0,21,2,21,0,58,0,0,0,0,20
01/27/18,0,14,5,97,1,48,1,166,0,0,0,1,55
01/28/18,0,9,2,88,7,73,0,179,0,0,0,1,78
01/29/18,1,12,0,38,0,0,0,51,0,0,0,0,2
01/30/18,1,9,1,23,0,20,0,54,0,8,2,0,43
01/31/18,1,9,0,51,3,10,2,76,0,0,0,0,9
DIST TOT,38,305,31,"1,751",85,566,6,"2,782",0,57,48,11,852
